simulation/qsim/Thesis_Project.msim.vcd
$comment
	File created using the following command:
		vcd file Thesis_Project.msim.vcd -direction
$end
$date
	Sun Nov 17 16:52:15 2024
$end
$version
	ModelSim Version 10.1d
$end
$timescale
	1ps
$end
$scope module BAUD_RATE_GENERATOR_vlg_vec_tst $end
$var reg 1 ! baud_div_16 $end
$var reg 13 " cd [12:0] $end
$var reg 1 # rst_n $end
$var reg 1 $ uart_mode_sel $end
$var reg 1 % uart_ref_clk $end
$var wire 1 & baud_tick $end
$var wire 1 ' cd_count [12] $end
$var wire 1 ( cd_count [11] $end
$var wire 1 ) cd_count [10] $end
$var wire 1 * cd_count [9] $end
$var wire 1 + cd_count [8] $end
$var wire 1 , cd_count [7] $end
$var wire 1 - cd_count [6] $end
$var wire 1 . cd_count [5] $end
$var wire 1 / cd_count [4] $end
$var wire 1 0 cd_count [3] $end
$var wire 1 1 cd_count [2] $end
$var wire 1 2 cd_count [1] $end
$var wire 1 3 cd_count [0] $end
$var wire 1 4 counter_baud [12] $end
$var wire 1 5 counter_baud [11] $end
$var wire 1 6 counter_baud [10] $end
$var wire 1 7 counter_baud [9] $end
$var wire 1 8 counter_baud [8] $end
$var wire 1 9 counter_baud [7] $end
$var wire 1 : counter_baud [6] $end
$var wire 1 ; counter_baud [5] $end
$var wire 1 < counter_baud [4] $end
$var wire 1 = counter_baud [3] $end
$var wire 1 > counter_baud [2] $end
$var wire 1 ? counter_baud [1] $end
$var wire 1 @ counter_baud [0] $end
$var wire 1 A sampler $end
$scope module i1 $end
$var wire 1 B gnd $end
$var wire 1 C vcc $end
$var wire 1 D unknown $end
$var tri1 1 E devclrn $end
$var tri1 1 F devpor $end
$var tri1 1 G devoe $end
$var wire 1 H WideAnd0~1_combout $end
$var wire 1 I cd[1]~input_o $end
$var wire 1 J cd[5]~input_o $end
$var wire 1 K cd[6]~input_o $end
$var wire 1 L baud_tick~output_o $end
$var wire 1 M counter_baud[0]~output_o $end
$var wire 1 N counter_baud[1]~output_o $end
$var wire 1 O counter_baud[2]~output_o $end
$var wire 1 P counter_baud[3]~output_o $end
$var wire 1 Q counter_baud[4]~output_o $end
$var wire 1 R counter_baud[5]~output_o $end
$var wire 1 S counter_baud[6]~output_o $end
$var wire 1 T counter_baud[7]~output_o $end
$var wire 1 U counter_baud[8]~output_o $end
$var wire 1 V counter_baud[9]~output_o $end
$var wire 1 W counter_baud[10]~output_o $end
$var wire 1 X counter_baud[11]~output_o $end
$var wire 1 Y counter_baud[12]~output_o $end
$var wire 1 Z cd_count[0]~output_o $end
$var wire 1 [ cd_count[1]~output_o $end
$var wire 1 \ cd_count[2]~output_o $end
$var wire 1 ] cd_count[3]~output_o $end
$var wire 1 ^ cd_count[4]~output_o $end
$var wire 1 _ cd_count[5]~output_o $end
$var wire 1 ` cd_count[6]~output_o $end
$var wire 1 a cd_count[7]~output_o $end
$var wire 1 b cd_count[8]~output_o $end
$var wire 1 c cd_count[9]~output_o $end
$var wire 1 d cd_count[10]~output_o $end
$var wire 1 e cd_count[11]~output_o $end
$var wire 1 f cd_count[12]~output_o $end
$var wire 1 g uart_ref_clk~input_o $end
$var wire 1 h uart_mode_sel~input_o $end
$var wire 1 i cd[12]~input_o $end
$var wire 1 j cd[11]~input_o $end
$var wire 1 k cd[10]~input_o $end
$var wire 1 l cd[9]~input_o $end
$var wire 1 m cd[8]~input_o $end
$var wire 1 n cd[7]~input_o $end
$var wire 1 o cd[4]~input_o $end
$var wire 1 p cd[2]~input_o $end
$var wire 1 q Add0~1 $end
$var wire 1 r Add0~3 $end
$var wire 1 s Add0~5 $end
$var wire 1 t Add0~7 $end
$var wire 1 u Add0~9 $end
$var wire 1 v Add0~11 $end
$var wire 1 w Add0~13 $end
$var wire 1 x Add0~15 $end
$var wire 1 y Add0~17 $end
$var wire 1 z Add0~19 $end
$var wire 1 { Add0~21 $end
$var wire 1 | Add0~23 $end
$var wire 1 } Add0~24_combout $end
$var wire 1 ~ Add0~20_combout $end
$var wire 1 !! counter_baud[0]~14 $end
$var wire 1 "! counter_baud[1]~16_combout $end
$var wire 1 #! rst_n~input_o $end
$var wire 1 $! rst_n~inputclkctrl_outclk $end
$var wire 1 %! Add0~10_combout $end
$var wire 1 &! WideAnd0~2_combout $end
$var wire 1 '! Add0~12_combout $end
$var wire 1 (! WideAnd0~3_combout $end
$var wire 1 )! Add0~2_combout $end
$var wire 1 *! counter_baud[0]~13_combout $end
$var wire 1 +! counter_baud[0]~reg0_q $end
$var wire 1 ,! WideAnd0~0_combout $end
$var wire 1 -! WideAnd0~4_combout $end
$var wire 1 .! counter_baud[0]~15_combout $end
$var wire 1 /! counter_baud[1]~reg0_q $end
$var wire 1 0! counter_baud[1]~17 $end
$var wire 1 1! counter_baud[2]~19 $end
$var wire 1 2! counter_baud[3]~21 $end
$var wire 1 3! counter_baud[4]~22_combout $end
$var wire 1 4! counter_baud[4]~reg0_q $end
$var wire 1 5! counter_baud[4]~23 $end
$var wire 1 6! counter_baud[5]~24_combout $end
$var wire 1 7! counter_baud[5]~reg0_q $end
$var wire 1 8! counter_baud[5]~25 $end
$var wire 1 9! counter_baud[6]~26_combout $end
$var wire 1 :! counter_baud[6]~reg0_q $end
$var wire 1 ;! counter_baud[6]~27 $end
$var wire 1 <! counter_baud[7]~28_combout $end
$var wire 1 =! counter_baud[7]~reg0_q $end
$var wire 1 >! counter_baud[7]~29 $end
$var wire 1 ?! counter_baud[8]~31 $end
$var wire 1 @! counter_baud[9]~32_combout $end
$var wire 1 A! counter_baud[9]~reg0_q $end
$var wire 1 B! counter_baud[9]~33 $end
$var wire 1 C! counter_baud[10]~34_combout $end
$var wire 1 D! counter_baud[10]~reg0_q $end
$var wire 1 E! counter_baud[10]~35 $end
$var wire 1 F! counter_baud[11]~36_combout $end
$var wire 1 G! counter_baud[11]~reg0_q $end
$var wire 1 H! WideAnd0~6_combout $end
$var wire 1 I! Add0~16_combout $end
$var wire 1 J! counter_baud[8]~30_combout $end
$var wire 1 K! counter_baud[8]~reg0_q $end
$var wire 1 L! WideAnd0~5_combout $end
$var wire 1 M! WideAnd0~7_combout $end
$var wire 1 N! clk_sel~0_combout $end
$var wire 1 O! clk_sel~q $end
$var wire 1 P! baud_tick~0_combout $end
$var wire 1 Q! baud_div_16~input_o $end
$var wire 1 R! baud_div_16~inputclkctrl_outclk $end
$var wire 1 S! counter_baud[2]~18_combout $end
$var wire 1 T! counter_baud[2]~reg0_q $end
$var wire 1 U! counter_baud[3]~20_combout $end
$var wire 1 V! counter_baud[3]~reg0_q $end
$var wire 1 W! counter_baud[11]~37 $end
$var wire 1 X! counter_baud[12]~38_combout $end
$var wire 1 Y! counter_baud[12]~reg0_q $end
$var wire 1 Z! cd[0]~input_o $end
$var wire 1 [! Add0~0_combout $end
$var wire 1 \! Add0~4_combout $end
$var wire 1 ]! cd[3]~input_o $end
$var wire 1 ^! Add0~6_combout $end
$var wire 1 _! Add0~8_combout $end
$var wire 1 `! Add0~14_combout $end
$var wire 1 a! Add0~18_combout $end
$var wire 1 b! Add0~22_combout $end
$upscope $end
$upscope $end
$enddefinitions $end
#0
$dumpvars
0!
b101 "
1#
0$
0%
0&
03
02
11
00
0/
0.
0-
0,
0+
0*
0)
0(
0'
0@
0?
0>
0=
0<
0;
0:
09
08
07
06
05
04
xA
0B
1C
xD
1E
1F
1G
1H
0I
0J
0K
0L
0M
0N
0O
0P
0Q
0R
0S
0T
0U
0V
0W
0X
0Y
0Z
0[
1\
0]
0^
0_
0`
0a
0b
0c
0d
0e
0f
0g
0h
0i
0j
0k
0l
0m
0n
0o
1p
1q
0r
1s
0t
1u
0v
1w
0x
1y
0z
1{
0|
0}
0~
0!!
0"!
1#!
1$!
0%!
0&!
0'!
0(!
0)!
1*!
0+!
0,!
1-!
0.!
0/!
10!
01!
12!
03!
04!
05!
06!
07!
18!
09!
0:!
0;!
0<!
0=!
1>!
0?!
0@!
0A!
1B!
0C!
0D!
0E!
0F!
0G!
0H!
0I!
0J!
0K!
0L!
0M!
0N!
0O!
0P!
0Q!
0R!
0S!
0T!
0U!
0V!
1W!
0X!
0Y!
1Z!
0[!
1\!
0]!
0^!
0_!
0`!
0a!
0b!
$end
#1000
1%
1g
0A
#2000
0%
0g
1A
#3000
1%
1g
0A
#4000
0%
0g
1A
#5000
1!
1%
1Q!
1g
1R!
0A
1+!
1,!
1!!
0*!
1M
1@
1"!
#6000
0%
0g
1A
#7000
1%
1g
0A
#8000
0%
0g
1A
#9000
1%
1g
0A
#10000
0!
0%
0Q!
0g
0R!
1A
#11000
1%
1g
0A
#12000
0%
0g
1A
#13000
1%
1g
0A
#14000
0%
0g
1A
#15000
1!
1%
1Q!
1g
1R!
0A
1/!
0+!
00!
0"!
0!!
1*!
1N
0M
1?
0@
1S!
10!
1"!
0S!
#16000
0%
0g
1A
#17000
1%
1g
0A
#18000
0%
0g
1A
#19000
1%
1g
0A
#20000
0!
0%
0Q!
0g
0R!
1A
#21000
1%
1g
0A
#22000
0%
0g
1A
#23000
1%
1g
0A
#24000
0%
0g
1A
#25000
1!
1%
1Q!
1g
1R!
0A
1+!
1!!
0*!
1M
1@
00!
0"!
1S!
#26000
0%
0g
1A
#27000
1%
1g
0A
#28000
0%
0g
1A
#29000
1%
1g
0A
#30000
0!
0%
0Q!
0g
0R!
1A
#31000
1%
1g
0A
#32000
0%
0g
1A
#33000
1%
1g
0A
#34000
0%
0g
1A
#35000
1!
1%
1Q!
1g
1R!
0A
1T!
0/!
0+!
11!
0S!
0H
0,!
10!
1"!
0!!
1*!
1O
0N
0M
1>
0?
0@
1U!
0-!
01!
1S!
0"!
1N!
1.!
0U!
#36000
0%
0g
1A
#37000
1%
1g
0A
#38000
0%
0g
1A
#39000
1%
1g
0A
#40000
0#
0!
0%
0#!
0Q!
0g
0$!
0R!
1A
0T!
0S!
1H
0O
0>
1-!
0N!
0.!
#41000
1%
1g
0A
#42000
0%
0g
1A
#43000
1%
1g
0A
#44000
0%
0g
1A
#45000
1!
1%
1Q!
1g
1R!
0A
#46000
0%
0g
1A
#47000
1%
1g
0A
#48000
0%
0g
1A
#49000
1%
1g
0A
#50000
1#
0!
0%
1#!
0Q!
0g
1$!
0R!
1A
#51000
1%
1g
0A
#52000
0%
0g
1A
#53000
1%
1g
0A
#54000
0%
0g
1A
#55000
1!
1%
1Q!
1g
1R!
0A
1+!
1,!
1!!
0*!
1M
1@
1"!
#56000
0%
0g
1A
#57000
1%
1g
0A
#58000
0%
0g
1A
#59000
1%
1g
0A
#60000
0!
0%
0Q!
0g
0R!
1A
#61000
1%
1g
0A
#62000
0%
0g
1A
#63000
1%
1g
0A
#64000
0%
0g
1A
#65000
1!
1%
1Q!
1g
1R!
0A
1/!
0+!
00!
0"!
0!!
1*!
1N
0M
1?
0@
1S!
10!
1"!
0S!
#66000
0%
0g
1A
#67000
1%
1g
0A
#68000
0%
0g
1A
#69000
1%
1g
0A
#70000
0!
0%
0Q!
0g
0R!
1A
#71000
1%
1g
0A
#72000
0%
0g
1A
#73000
1%
1g
0A
#74000
0%
0g
1A
#75000
1!
1%
1Q!
1g
1R!
0A
1+!
1!!
0*!
1M
1@
00!
0"!
1S!
#76000
0%
0g
1A
#77000
1%
1g
0A
#78000
0%
0g
1A
#79000
1%
1g
0A
#80000
0!
0%
0Q!
0g
0R!
1A
#81000
1%
1g
0A
#82000
0%
0g
1A
#83000
1%
1g
0A
#84000
0%
0g
1A
#85000
1!
1%
1Q!
1g
1R!
0A
1T!
0/!
0+!
11!
0S!
0H
0,!
10!
1"!
0!!
1*!
1O
0N
0M
1>
0?
0@
1U!
0-!
01!
1S!
0"!
1N!
1.!
0U!
#86000
0%
0g
1A
#87000
1%
1g
0A
#88000
0%
0g
1A
#89000
1%
1g
0A
#90000
0!
0%
0Q!
0g
0R!
1A
#91000
1%
1g
0A
#92000
0%
0g
1A
#93000
1%
1g
0A
#94000
0%
0g
1A
#95000
1!
1%
1Q!
1g
1R!
0A
1O!
0T!
0N!
0S!
1H
0O
0>
1P!
1-!
1L
1&
1N!
0.!
#96000
0%
0g
1A
#97000
1%
1g
0A
#98000
0%
0g
1A
#99000
1%
1g
0A
#100000
0!
0%
0Q!
0g
0R!
1A
#101000
1%
1g
0A
#102000
0%
0g
1A
#103000
1%
1g
0A
#104000
0%
0g
1A
#105000
1!
1%
1Q!
1g
1R!
0A
1+!
1,!
1!!
0*!
1M
1@
1"!
#106000
0%
0g
1A
#107000
1%
1g
0A
#108000
0%
0g
1A
#109000
1%
1g
0A
#110000
0!
0%
0Q!
0g
0R!
1A
#111000
1%
1g
0A
#112000
0%
0g
1A
#113000
1%
1g
0A
#114000
0%
0g
1A
#115000
1!
1%
1Q!
1g
1R!
0A
1/!
0+!
00!
0"!
0!!
1*!
1N
0M
1?
0@
1S!
10!
1"!
0S!
#116000
0%
0g
1A
#117000
1%
1g
0A
#118000
0%
0g
1A
#119000
1%
1g
0A
#120000
0!
0%
0Q!
0g
0R!
1A
#121000
1%
1g
0A
#122000
0%
0g
1A
#123000
1%
1g
0A
#124000
0%
0g
1A
#125000
1!
1%
1Q!
1g
1R!
0A
1+!
1!!
0*!
1M
1@
00!
0"!
1S!
#126000
0%
0g
1A
#127000
1%
1g
0A
#128000
0%
0g
1A
#129000
1%
1g
0A
#130000
0!
0%
0Q!
0g
0R!
1A
#131000
1%
1g
0A
#132000
0%
0g
1A
#133000
1%
1g
0A
#134000
0%
0g
1A
#135000
1!
1%
1Q!
1g
1R!
0A
1T!
0/!
0+!
11!
0S!
0H
0,!
10!
1"!
0!!
1*!
1O
0N
0M
1>
0?
0@
1U!
0-!
01!
1S!
0"!
0N!
1.!
0U!
#136000
0%
0g
1A
#137000
1%
1g
0A
#138000
0%
0g
1A
#139000
1%
1g
0A
#140000
0!
0%
0Q!
0g
0R!
1A
#141000
1%
1g
0A
#142000
0%
0g
1A
#143000
1%
1g
0A
#144000
0%
0g
1A
#145000
1!
1%
1Q!
1g
1R!
0A
0O!
0T!
1N!
0S!
1H
0O
0>
0P!
1-!
0L
0&
0N!
0.!
#146000
0%
0g
1A
#147000
1%
1g
0A
#148000
0%
0g
1A
#149000
1%
1g
0A
#150000
0!
0%
0Q!
0g
0R!
1A
#151000
1%
1g
0A
#152000
0%
0g
1A
#153000
1%
1g
0A
#154000
0%
0g
1A
#155000
1!
1%
1Q!
1g
1R!
0A
1+!
1,!
1!!
0*!
1M
1@
1"!
#156000
0%
0g
1A
#157000
1%
1g
0A
#158000
0%
0g
1A
#159000
1%
1g
0A
#160000
1$
0!
0%
1h
0Q!
0g
0R!
1A
1.!
#161000
1%
1g
0A
1P!
1L
1&
#162000
0%
0g
1A
0P!
0L
0&
#163000
1%
1g
0A
1P!
1L
1&
#164000
0%
0g
1A
0P!
0L
0&
#165000
1!
1%
1Q!
1g
1R!
0A
1P!
1L
1&
0+!
0,!
0!!
1*!
0M
0@
0"!
#166000
0%
0g
1A
0P!
0L
0&
#167000
1%
1g
0A
1P!
1L
1&
#168000
0%
0g
1A
0P!
0L
0&
#169000
1%
1g
0A
1P!
1L
1&
#170000
0!
0%
0Q!
0g
0R!
1A
0P!
0L
0&
#171000
1%
1g
0A
1P!
1L
1&
#172000
0%
0g
1A
0P!
0L
0&
#173000
1%
1g
0A
1P!
1L
1&
#174000
0%
0g
1A
0P!
0L
0&
#175000
1!
1%
1Q!
1g
1R!
0A
1P!
1L
1&
#176000
0%
0g
1A
0P!
0L
0&
#177000
1%
1g
0A
1P!
1L
1&
#178000
0%
0g
1A
0P!
0L
0&
#179000
1%
1g
0A
1P!
1L
1&
#180000
0!
0%
0Q!
0g
0R!
1A
0P!
0L
0&
#181000
1%
1g
0A
1P!
1L
1&
#182000
0%
0g
1A
0P!
0L
0&
#183000
1%
1g
0A
1P!
1L
1&
#184000
0%
0g
1A
0P!
0L
0&
#185000
1!
1%
1Q!
1g
1R!
0A
1P!
1L
1&
#186000
0%
0g
1A
0P!
0L
0&
#187000
1%
1g
0A
1P!
1L
1&
#188000
0%
0g
1A
0P!
0L
0&
#189000
1%
1g
0A
1P!
1L
1&
#190000
0!
0%
0Q!
0g
0R!
1A
0P!
0L
0&
#191000
1%
1g
0A
1P!
1L
1&
#192000
0%
0g
1A
0P!
0L
0&
#193000
1%
1g
0A
1P!
1L
1&
#194000
0%
0g
1A
0P!
0L
0&
#195000
1!
1%
1Q!
1g
1R!
0A
1P!
1L
1&
#196000
0%
0g
1A
0P!
0L
0&
#197000
1%
1g
0A
1P!
1L
1&
#198000
0%
0g
1A
0P!
0L
0&
#199000
1%
1g
0A
1P!
1L
1&
#200000
0!
0%
0Q!
0g
0R!
1A
0P!
0L
0&
#201000
1%
1g
0A
1P!
1L
1&
#202000
0%
0g
1A
0P!
0L
0&
#203000
1%
1g
0A
1P!
1L
1&
#204000
0%
0g
1A
0P!
0L
0&
#205000
1!
1%
1Q!
1g
1R!
0A
1P!
1L
1&
#206000
0%
0g
1A
0P!
0L
0&
#207000
1%
1g
0A
1P!
1L
1&
#208000
0%
0g
1A
0P!
0L
0&
#209000
1%
1g
0A
1P!
1L
1&
#210000
0!
0%
0Q!
0g
0R!
1A
0P!
0L
0&
#211000
1%
1g
0A
1P!
1L
1&
#212000
0%
0g
1A
0P!
0L
0&
#213000
1%
1g
0A
1P!
1L
1&
#214000
0%
0g
1A
0P!
0L
0&
#215000
1!
1%
1Q!
1g
1R!
0A
1P!
1L
1&
#216000
0%
0g
1A
0P!
0L
0&
#217000
1%
1g
0A
1P!
1L
1&
#218000
0%
0g
1A
0P!
0L
0&
#219000
1%
1g
0A
1P!
1L
1&
#220000
0!
0%
0Q!
0g
0R!
1A
0P!
0L
0&
#221000
1%
1g
0A
1P!
1L
1&
#222000
0%
0g
1A
0P!
0L
0&
#223000
1%
1g
0A
1P!
1L
1&
#224000
0%
0g
1A
0P!
0L
0&
#225000
1!
1%
1Q!
1g
1R!
0A
1P!
1L
1&
#226000
0%
0g
1A
0P!
0L
0&
#227000
1%
1g
0A
1P!
1L
1&
#228000
0%
0g
1A
0P!
0L
0&
#229000
1%
1g
0A
1P!
1L
1&
#230000
0!
0%
0Q!
0g
0R!
1A
0P!
0L
0&
#231000
1%
1g
0A
1P!
1L
1&
#232000
0%
0g
1A
0P!
0L
0&
#233000
1%
1g
0A
1P!
1L
1&
#234000
0%
0g
1A
0P!
0L
0&
#235000
1!
1%
1Q!
1g
1R!
0A
1P!
1L
1&
#236000
0%
0g
1A
0P!
0L
0&
#237000
1%
1g
0A
1P!
1L
1&
#238000
0%
0g
1A
0P!
0L
0&
#239000
1%
1g
0A
1P!
1L
1&
#240000
0!
0%
0Q!
0g
0R!
1A
0P!
0L
0&
#241000
1%
1g
0A
1P!
1L
1&
#242000
0%
0g
1A
0P!
0L
0&
#243000
1%
1g
0A
1P!
1L
1&
#244000
0%
0g
1A
0P!
0L
0&
#245000
1!
1%
1Q!
1g
1R!
0A
1P!
1L
1&
#246000
0%
0g
1A
0P!
0L
0&
#247000
1%
1g
0A
1P!
1L
1&
#248000
0%
0g
1A
0P!
0L
0&
#249000
1%
1g
0A
1P!
1L
1&
#250000
0!
0%
0Q!
0g
0R!
1A
0P!
0L
0&
#251000
1%
1g
0A
1P!
1L
1&
#252000
0%
0g
1A
0P!
0L
0&
#253000
1%
1g
0A
1P!
1L
1&
#254000
0%
0g
1A
0P!
0L
0&
#255000
1!
1%
1Q!
1g
1R!
0A
1P!
1L
1&
#256000
0%
0g
1A
0P!
0L
0&
#257000
1%
1g
0A
1P!
1L
1&
#258000
0%
0g
1A
0P!
0L
0&
#259000
1%
1g
0A
1P!
1L
1&
#260000
0!
0%
0Q!
0g
0R!
1A
0P!
0L
0&
#261000
1%
1g
0A
1P!
1L
1&
#262000
0%
0g
1A
0P!
0L
0&
#263000
1%
1g
0A
1P!
1L
1&
#264000
0%
0g
1A
0P!
0L
0&
#265000
1!
1%
1Q!
1g
1R!
0A
1P!
1L
1&
#266000
0%
0g
1A
0P!
0L
0&
#267000
1%
1g
0A
1P!
1L
1&
#268000
0%
0g
1A
0P!
0L
0&
#269000
1%
1g
0A
1P!
1L
1&
#270000
0!
0%
0Q!
0g
0R!
1A
0P!
0L
0&
#271000
1%
1g
0A
1P!
1L
1&
#272000
0%
0g
1A
0P!
0L
0&
#273000
1%
1g
0A
1P!
1L
1&
#274000
0%
0g
1A
0P!
0L
0&
#275000
1!
1%
1Q!
1g
1R!
0A
1P!
1L
1&
#276000
0%
0g
1A
0P!
0L
0&
#277000
1%
1g
0A
1P!
1L
1&
#278000
0%
0g
1A
0P!
0L
0&
#279000
1%
1g
0A
1P!
1L
1&
#280000
0!
0%
0Q!
0g
0R!
1A
0P!
0L
0&
#281000
1%
1g
0A
1P!
1L
1&
#282000
0%
0g
1A
0P!
0L
0&
#283000
1%
1g
0A
1P!
1L
1&
#284000
0%
0g
1A
0P!
0L
0&
#285000
1!
1%
1Q!
1g
1R!
0A
1P!
1L
1&
#286000
0%
0g
1A
0P!
0L
0&
#287000
1%
1g
0A
1P!
1L
1&
#288000
0%
0g
1A
0P!
0L
0&
#289000
1%
1g
0A
1P!
1L
1&
#290000
0$
0!
0%
0h
0Q!
0g
0R!
1A
0.!
0P!
0L
0&
#291000
1%
1g
0A
#292000
0%
0g
1A
#293000
1%
1g
0A
#294000
0%
0g
1A
#295000
1!
1%
1Q!
1g
1R!
0A
1+!
1,!
1!!
0*!
1M
1@
1"!
#296000
0%
0g
1A
#297000
1%
1g
0A
#298000
0%
0g
1A
#299000
1%
1g
0A
#300000
0!
0%
0Q!
0g
0R!
1A
#301000
1%
1g
0A
#302000
0%
0g
1A
#303000
1%
1g
0A
#304000
0%
0g
1A
#305000
1!
1%
1Q!
1g
1R!
0A
1/!
0+!
00!
0"!
0!!
1*!
1N
0M
1?
0@
1S!
10!
1"!
0S!
#306000
0%
0g
1A
#307000
1%
1g
0A
#308000
0%
0g
1A
#309000
1%
1g
0A
#310000
0!
0%
0Q!
0g
0R!
1A
#311000
1%
1g
0A
#312000
0%
0g
1A
#313000
1%
1g
0A
#314000
0%
0g
1A
#315000
1!
1%
1Q!
1g
1R!
0A
1+!
1!!
0*!
1M
1@
00!
0"!
1S!
#316000
0%
0g
1A
#317000
1%
1g
0A
#318000
0%
0g
1A
#319000
1%
1g
0A
#320000
0!
0%
0Q!
0g
0R!
1A
#321000
1%
1g
0A
#322000
0%
0g
1A
#323000
1%
1g
0A
#324000
0%
0g
1A
#325000
1!
1%
1Q!
1g
1R!
0A
1T!
0/!
0+!
11!
0S!
0H
0,!
10!
1"!
0!!
1*!
1O
0N
0M
1>
0?
0@
1U!
0-!
01!
1S!
0"!
1N!
1.!
0U!
#326000
0%
0g
1A
#327000
1%
1g
0A
#328000
0%
0g
1A
#329000
1%
1g
0A
#330000
0!
0%
0Q!
0g
0R!
1A
#331000
1%
1g
0A
#332000
0%
0g
1A
#333000
1%
1g
0A
#334000
0%
0g
1A
#335000
1!
1%
1Q!
1g
1R!
0A
1O!
0T!
0N!
0S!
1H
0O
0>
1P!
1-!
1L
1&
1N!
0.!
#336000
0%
0g
1A
#337000
1%
1g
0A
#338000
0%
0g
1A
#339000
1%
1g
0A
#340000
0!
0%
0Q!
0g
0R!
1A
#341000
1%
1g
0A
#342000
0%
0g
1A
#343000
1%
1g
0A
#344000
0%
0g
1A
#345000
1!
1%
1Q!
1g
1R!
0A
1+!
1,!
1!!
0*!
1M
1@
1"!
#346000
0%
0g
1A
#347000
1%
1g
0A
#348000
0%
0g
1A
#349000
1%
1g
0A
#350000
0!
0%
0Q!
0g
0R!
1A
#351000
1%
1g
0A
#352000
0%
0g
1A
#353000
1%
1g
0A
#354000
0%
0g
1A
#355000
1!
1%
1Q!
1g
1R!
0A
1/!
0+!
00!
0"!
0!!
1*!
1N
0M
1?
0@
1S!
10!
1"!
0S!
#356000
0%
0g
1A
#357000
1%
1g
0A
#358000
0%
0g
1A
#359000
1%
1g
0A
#360000
0!
0%
0Q!
0g
0R!
1A
#361000
1%
1g
0A
#362000
0%
0g
1A
#363000
1%
1g
0A
#364000
0%
0g
1A
#365000
1!
1%
1Q!
1g
1R!
0A
1+!
1!!
0*!
1M
1@
00!
0"!
1S!
#366000
0%
0g
1A
#367000
1%
1g
0A
#368000
0%
0g
1A
#369000
1%
1g
0A
#370000
0!
0%
0Q!
0g
0R!
1A
#371000
1%
1g
0A
#372000
0%
0g
1A
#373000
1%
1g
0A
#374000
0%
0g
1A
#375000
1!
1%
1Q!
1g
1R!
0A
1T!
0/!
0+!
11!
0S!
0H
0,!
10!
1"!
0!!
1*!
1O
0N
0M
1>
0?
0@
1U!
0-!
01!
1S!
0"!
0N!
1.!
0U!
#376000
0%
0g
1A
#377000
1%
1g
0A
#378000
0%
0g
1A
#379000
1%
1g
0A
#380000
0!
0%
0Q!
0g
0R!
1A
#381000
1%
1g
0A
#382000
0%
0g
1A
#383000
1%
1g
0A
#384000
0%
0g
1A
#385000
1!
1%
1Q!
1g
1R!
0A
0O!
0T!
1N!
0S!
1H
0O
0>
0P!
1-!
0L
0&
0N!
0.!
#386000
0%
0g
1A
#387000
1%
1g
0A
#388000
0%
0g
1A
#389000
1%
1g
0A
#390000
0!
0%
0Q!
0g
0R!
1A
#391000
1%
1g
0A
#392000
0%
0g
1A
#393000
1%
1g
0A
#394000
0%
0g
1A
#395000
1!
1%
1Q!
1g
1R!
0A
1+!
1,!
1!!
0*!
1M
1@
1"!
#396000
0%
0g
1A
#397000
1%
1g
0A
#398000
0%
0g
1A
#399000
1%
1g
0A
#400000
0!
0%
0Q!
0g
0R!
1A
#401000
1%
1g
0A
#402000
0%
0g
1A
#403000
1%
1g
0A
#404000
0%
0g
1A
#405000
1!
1%
1Q!
1g
1R!
0A
1/!
0+!
00!
0"!
0!!
1*!
1N
0M
1?
0@
1S!
10!
1"!
0S!
#406000
0%
0g
1A
#407000
1%
1g
0A
#408000
0%
0g
1A
#409000
1%
1g
0A
#410000
0!
0%
0Q!
0g
0R!
1A
#411000
1%
1g
0A
#412000
0%
0g
1A
#413000
1%
1g
0A
#414000
0%
0g
1A
#415000
1!
1%
1Q!
1g
1R!
0A
1+!
1!!
0*!
1M
1@
00!
0"!
1S!
#416000
0%
0g
1A
#417000
1%
1g
0A
#418000
0%
0g
1A
#419000
1%
1g
0A
#420000
0!
0%
0Q!
0g
0R!
1A
#421000
1%
1g
0A
#422000
0%
0g
1A
#423000
1%
1g
0A
#424000
0%
0g
1A
#425000
1!
1%
1Q!
1g
1R!
0A
1T!
0/!
0+!
11!
0S!
0H
0,!
10!
1"!
0!!
1*!
1O
0N
0M
1>
0?
0@
1U!
0-!
01!
1S!
0"!
1N!
1.!
0U!
#426000
0%
0g
1A
#427000
1%
1g
0A
#428000
0%
0g
1A
#429000
1%
1g
0A
#430000
0!
0%
0Q!
0g
0R!
1A
#431000
1%
1g
0A
#432000
0%
0g
1A
#433000
1%
1g
0A
#434000
0%
0g
1A
#435000
1!
1%
1Q!
1g
1R!
0A
1O!
0T!
0N!
0S!
1H
0O
0>
1P!
1-!
1L
1&
1N!
0.!
#436000
0%
0g
1A
#437000
1%
1g
0A
#438000
0%
0g
1A
#439000
1%
1g
0A
#440000
0!
0%
0Q!
0g
0R!
1A
#441000
1%
1g
0A
#442000
0%
0g
1A
#443000
1%
1g
0A
#444000
0%
0g
1A
#445000
1!
1%
1Q!
1g
1R!
0A
1+!
1,!
1!!
0*!
1M
1@
1"!
#446000
0%
0g
1A
#447000
1%
1g
0A
#448000
0%
0g
1A
#449000
1%
1g
0A
#450000
0!
0%
0Q!
0g
0R!
1A
#451000
1%
1g
0A
#452000
0%
0g
1A
#453000
1%
1g
0A
#454000
0%
0g
1A
#455000
1!
1%
1Q!
1g
1R!
0A
1/!
0+!
00!
0"!
0!!
1*!
1N
0M
1?
0@
1S!
10!
1"!
0S!
#456000
0%
0g
1A
#457000
1%
1g
0A
#458000
0%
0g
1A
#459000
1%
1g
0A
#460000
0!
0%
0Q!
0g
0R!
1A
#461000
1%
1g
0A
#462000
0%
0g
1A
#463000
1%
1g
0A
#464000
0%
0g
1A
#465000
1!
1%
1Q!
1g
1R!
0A
1+!
1!!
0*!
1M
1@
00!
0"!
1S!
#466000
0%
0g
1A
#467000
1%
1g
0A
#468000
0%
0g
1A
#469000
1%
1g
0A
#470000
0!
0%
0Q!
0g
0R!
1A
#471000
1%
1g
0A
#472000
0%
0g
1A
#473000
1%
1g
0A
#474000
0%
0g
1A
#475000
1!
1%
1Q!
1g
1R!
0A
1T!
0/!
0+!
11!
0S!
0H
0,!
10!
1"!
0!!
1*!
1O
0N
0M
1>
0?
0@
1U!
0-!
01!
1S!
0"!
0N!
1.!
0U!
#476000
0%
0g
1A
#477000
1%
1g
0A
#478000
0%
0g
1A
#479000
1%
1g
0A
#480000
0!
0%
0Q!
0g
0R!
1A
#481000
1%
1g
0A
#482000
0%
0g
1A
#483000
1%
1g
0A
#484000
0%
0g
1A
#485000
1!
1%
1Q!
1g
1R!
0A
0O!
0T!
1N!
0S!
1H
0O
0>
0P!
1-!
0L
0&
0N!
0.!
#486000
0%
0g
1A
#487000
1%
1g
0A
#488000
0%
0g
1A
#489000
1%
1g
0A
#490000
0!
0%
0Q!
0g
0R!
1A
#491000
1%
1g
0A
#492000
0%
0g
1A
#493000
1%
1g
0A
#494000
0%
0g
1A
#495000
1!
1%
1Q!
1g
1R!
0A
1+!
1,!
1!!
0*!
1M
1@
1"!
#496000
0%
0g
1A
#497000
1%
1g
0A
#498000
0%
0g
1A
#499000
1%
1g
0A
#500000
0!
0%
0Q!
0g
0R!
1A
#501000
1%
1g
0A
#502000
0%
0g
1A
#503000
1%
1g
0A
#504000
0%
0g
1A
